{
    "status": 0,
    "message": "",
    "result": {
        "data": [
            {
                "itemNo": "1",
                "diseaseCode": "1",
                "diseaseName": "1",
                "customCode": "1",
                "injuryFlag": "1",
                "bearFlag": "1",
                "diseaseType": "1",
                "startDate": "1",
                "itemId": "1"
            }, {
                "itemNo": "2",
                "diseaseCode": "2",
                "diseaseName": "2",
                "customCode": "2",
                "injuryFlag": "2",
                "bearFlag": "2",
                "diseaseType": "2",
                "startDate": "2",
                "itemId": "2"
            }, {
                "itemNo": "3",
                "diseaseCode": "3",
                "diseaseName": "3",
                "customCode": "3",
                "injuryFlag": "3",
                "bearFlag": "3",
                "diseaseType": "3",
                "startDate": "3",
                "itemId": "3"
            }
        ],
        "paginator": {
            "pageIndex": 3,
            "lower":2,
            "higher":6,
            "pageSize":10,
            "totalPages": 9,
            "totalRecords": 83
        }
    }
}